Session 30 – Importing/Exporting Data into R | Bioinformatics Workshop Gitbook
…
html <- read_html("https://www.stjohns.edu/academics/office-registrar/academic-calendar/final-exam-schedule")
html
#{{html_document}
#<html lang="en" dir="ltr" prefix="content: http://purl.org/rss/1.0/modules/content/  dc: http://purl.org/dc/terms/  foaf: http://xmlns.com/foaf/0.1/  og: http://ogp.me/ns#  rdfs: http://www.w3.org/2000/01/rdf-schema#  schema: http://schema.org/  sioc: http://rdfs.org/sioc/ns#  sioct: http://rdfs.org/sioc/types#  skos: http://www.w3.org/2004/02/skos/core#  xsd: http://www.w3.org/2001/XMLSchema# ">
#[1] <head>\n<meta http-equiv="Content-Type" content="text/html; charset=UTF-8">\n<meta charset="utf-8">\n<script type="text/javascript">(window.NREUM|| ...
#[2] <body>\n    <!-- Google Tag Manager -->\n    <noscript><iframe src="//www.googletagmanager.com/ns.html?id=GTM-5STJNB" height="0" width="0" style="d ...

# Get dates as table

exams_table <- html_node(html , "table")
exams_table_tibble <- html_table(exams_table)
exams_table_tibble

# A tibble: 31 × 4
#   `Class Meeting` Time                   `Final Exam/Final Class` Time                  
#   <chr>           <chr>                  <chr>                    <chr>                 
# 1 "Days"          "Time"                 "Date"                   "Time"                
# 2 "M-R"           "9:05 a.m.-10:30 a.m." "May 4 (R)"              "9:05 a.m.-11:05 a.m."
# 3 "M-R"           "12:15 p.m.-1:40 p.m." "May 4 (R)"              "12:15 p.m.-2:15 p.m."
# 4 "M-R"           "5:00 p.m.-6:25 p.m."  "May 4 (R)"              "5:00 p.m.-7:00 p.m." 
# 5 "M-R"           "8:45 p.m.-10:10 p.m." "May 4 (R)"              "8:45 p.m.-10:45 p.m."
# 6 ""              ""                     ""                       ""                    
# 7 "T-F"           "9:05 a.m.-10:30 a.m." "May 5 (F)"              "9:05 a.m.-11:05 a.m."
# 8 "T-F"           "12:15 p.m.-1:40 p.m." "May 5 (F)"              "12:15 p.m.-2:15 p.m."
# 9 "T-F"           "3:25 p.m.-4:50 p.m."  "May 5 (F)"              "3:25 p.m.-5:25 p.m." 
#10 "T-F"           "7:10 p.m.-8:35 p.m."  "May 5 (F)"              "7:10 p.m.-9:10 p.m." 
# … with 21 more rows
# ℹ Use `print(n = ...)` to see more rows
…
